Visualising data with R and ggplot
…
# A bit of tidying

```r
brexit %>% 
  mutate(date = lubridate::dmy(date)) 
```

```
## # A tibble: 85 x 3
##    date       percent_responding_right percent_responding_wrong
##    <date>                        <dbl>                    <dbl>
##  1 2016-08-02                       46                       42
##  2 2016-08-09                       45                       44
##  3 2016-08-17                       46                       43
##  4 2016-08-23                       45                       43
##  5 2016-08-31                       47                       44
##  6 2016-09-14                       46                       43
##  7 2016-10-12                       45                       44
##  8 2016-10-20                       45                       44
##  9 2016-11-15                       46                       43
## 10 2016-11-29                       44                       45
## # ... with 75 more rows
```
```r
## BASE R ALTERNATIVE: as.Date(date, format = '%d/%m/%y')
```
---

# A bit of tidying

```r
brexit %>% 
  mutate(date = lubridate::dmy(date)) %>%
  gather(category, percentage, -date)
```

```
## # A tibble: 170 x 3
##    date       category                 percentage
##    <date>     <chr>                         <dbl>
##  1 2016-08-02 percent_responding_right         46
##  2 2016-08-09 percent_responding_right         45
##  3 2016-08-17 percent_responding_right         46
##  4 2016-08-23 percent_responding_right         45
##  5 2016-08-31 percent_responding_right         47
##  6 2016-09-14 percent_responding_right         46
##  7 2016-10-12 percent_responding_right         45
##  8 2016-10-20 percent_responding_right         45
##  9 2016-11-15 percent_responding_right         46
## 10 2016-11-29 percent_responding_right         44
## # ... with 160 more rows
```
…
